{"failedCount":2,"prefixedPath":"classpath:com\/GoRest\/TestCasesForPostMEthod.feature","packageQualifiedName":"com.GoRest.TestCasesForPostMEthod","loopIndex":-1,"relativePath":"com\/GoRest\/TestCasesForPostMEthod.feature","scenarioResults":[{"sectionIndex":0,"stepResults":[{"result":{"nanos":53287001,"startTime":1738817353016,"endTime":1738817353069,"millis":53.287001,"status":"passed"},"step":{"line":4,"prefix":"Given","index":0,"text":"url 'https:\/\/gorest.co.in\/public\/v2\/users\/7001927'"}},{"result":{"nanos":1524036100,"startTime":1738817353071,"endTime":1738817354595,"millis":1524.0361,"status":"passed"},"step":{"line":5,"prefix":"When","index":1,"text":"method GET"},"stepLog":"10:19:13.307 request:\n1 > GET https:\/\/gorest.co.in\/public\/v2\/users\/7001927\n1 > Host: gorest.co.in\n1 > Connection: Keep-Alive\n1 > User-Agent: Apache-HttpClient\/4.5.14 (Java\/17.0.10)\n1 > Accept-Encoding: gzip,deflate\n\n\n10:19:14.572 response time in milliseconds: 1258\n1 < 404\n1 < Date: Thu, 06 Feb 2025 04:49:15 GMT\n1 < Content-Type: application\/json; charset=utf-8\n1 < Content-Length: 32\n1 < Connection: keep-alive\n1 < Cache-Control: no-cache\n1 < feature-policy: camera 'none'; gyroscope 'none'; microphone 'none'; usb 'none'; fullscreen 'self'\n1 < referrer-policy: strict-origin-when-cross-origin\n1 < vary: Origin\n1 < x-content-type-options: nosniff\n1 < x-download-options: noopen\n1 < x-frame-options: SAMEORIGIN\n1 < x-permitted-cross-domain-policies: none\n1 < x-request-id: 9afc04cb-fecd-45f5-94f2-5ae0c01a787a\n1 < x-runtime: 0.012833\n1 < x-xss-protection: 0\n1 < cf-cache-status: DYNAMIC\n1 < Report-To: {\"endpoints\":[{\"url\":\"https:\\\/\\\/a.nel.cloudflare.com\\\/report\\\/v4?s=v6clUUYVk%2Fy9mw8VXQ13CqAQgximFW6JFpVhlJv4xxIwHPbGYUzSJDLXJKgD44znuE9DkC0C1tBXmGlyCV1b%2BlsbBsPy60xppUVADamoSntrH%2FFKqwaXJUPOurfaGKM%3D\"}],\"group\":\"cf-nel\",\"max_age\":604800}\n1 < NEL: {\"success_fraction\":0,\"report_to\":\"cf-nel\",\"max_age\":604800}\n1 < Server: cloudflare\n1 < CF-RAY: 90d883326d28f03f-LHR\n1 < alt-svc: h3=\":443\"; ma=86400\n1 < server-timing: cfL4;desc=\"?proto=TCP&rtt=131837&min_rtt=131837&rtt_var=65918&sent=6&recv=8&lost=0&retrans=1&sent_bytes=3402&recv_bytes=776&delivery_rate=11020&cwnd=243&unsent_bytes=0&cid=69725e3900e6c813&ts=839&x=0\"\n{\"message\":\"Resource not found\"}\n\n"},{"result":{"nanos":10090600,"errorMessage":"status code was: 404, expected: 200, response time in milliseconds: 1258, url: https:\/\/gorest.co.in\/public\/v2\/users\/7001927, response: \n{\"message\":\"Resource not found\"}\nclasspath:com\/GoRest\/TestCasesForPostMEthod.feature:6","startTime":1738817354596,"endTime":1738817354606,"millis":10.0906,"status":"failed"},"step":{"line":6,"prefix":"Then","index":2,"text":"status 200"},"stepLog":"10:19:14.606 classpath:com\/GoRest\/TestCasesForPostMEthod.feature:6\nThen status 200\nstatus code was: 404, expected: 200, response time in milliseconds: 1258, url: https:\/\/gorest.co.in\/public\/v2\/users\/7001927, response: \n{\"message\":\"Resource not found\"}\nclasspath:com\/GoRest\/TestCasesForPostMEthod.feature:6\n"}],"line":3,"description":"","durationMillis":1587.413701,"failed":true,"error":"status code was: 404, expected: 200, response time in milliseconds: 1258, url: https:\/\/gorest.co.in\/public\/v2\/users\/7001927, response: \n{\"message\":\"Resource not found\"}\nclasspath:com\/GoRest\/TestCasesForPostMEthod.feature:6","executorName":"main","name":"To verify get method with valid user ID","startTime":1738817353005,"refId":"[1:3]","endTime":1738817354606,"exampleIndex":-1},{"sectionIndex":1,"stepResults":[{"result":{"nanos":765400,"startTime":1738817354629,"endTime":1738817354630,"millis":0.7654,"status":"passed"},"step":{"line":9,"prefix":"Given","index":0,"text":"url 'https:\/\/gorest.co.in\/public\/v2\/users\/700234567'"}},{"result":{"nanos":872213599,"startTime":1738817354629,"endTime":1738817355501,"millis":872.213599,"status":"passed"},"step":{"line":10,"prefix":"When","index":1,"text":"method GET"},"stepLog":"10:19:14.630 request:\n1 > GET https:\/\/gorest.co.in\/public\/v2\/users\/700234567\n1 > Host: gorest.co.in\n1 > Connection: Keep-Alive\n1 > User-Agent: Apache-HttpClient\/4.5.14 (Java\/17.0.10)\n1 > Accept-Encoding: gzip,deflate\n\n\n10:19:15.496 response time in milliseconds: 862\n1 < 404\n1 < Date: Thu, 06 Feb 2025 04:49:16 GMT\n1 < Content-Type: application\/json; charset=utf-8\n1 < Content-Length: 32\n1 < Connection: keep-alive\n1 < Cache-Control: no-cache\n1 < feature-policy: camera 'none'; gyroscope 'none'; microphone 'none'; usb 'none'; fullscreen 'self'\n1 < referrer-policy: strict-origin-when-cross-origin\n1 < vary: Origin\n1 < x-content-type-options: nosniff\n1 < x-download-options: noopen\n1 < x-frame-options: SAMEORIGIN\n1 < x-permitted-cross-domain-policies: none\n1 < x-request-id: e83b7f64-2b65-4169-b8de-5466fd203580\n1 < x-runtime: 0.011542\n1 < x-xss-protection: 0\n1 < cf-cache-status: DYNAMIC\n1 < Report-To: {\"endpoints\":[{\"url\":\"https:\\\/\\\/a.nel.cloudflare.com\\\/report\\\/v4?s=4B2uJknrRx5tmaf4uCJqfNtAv%2BLu5KMouaQ6f9PkbFqc2EFO7qt5CgMZuvO9erWgeXP4CnZUBYGG6KLlPVeg7VMfvA2VNxfb%2BpwRV%2F9cu2Xp2N8NWvYks0dxe0txX14%3D\"}],\"group\":\"cf-nel\",\"max_age\":604800}\n1 < NEL: {\"success_fraction\":0,\"report_to\":\"cf-nel\",\"max_age\":604800}\n1 < Server: cloudflare\n1 < CF-RAY: 90d883385e2fef23-LHR\n1 < alt-svc: h3=\":443\"; ma=86400\n1 < server-timing: cfL4;desc=\"?proto=TCP&rtt=128191&min_rtt=127924&rtt_var=48506&sent=4&recv=6&lost=0&retrans=0&sent_bytes=219&recv_bytes=1033&delivery_rate=10856&cwnd=250&unsent_bytes=0&cid=c38fc5ed4edf34ce&ts=581&x=0\"\n{\"message\":\"Resource not found\"}\n\n"},{"result":{"nanos":196501,"errorMessage":"status code was: 404, expected: 200, response time in milliseconds: 862, url: https:\/\/gorest.co.in\/public\/v2\/users\/700234567, response: \n{\"message\":\"Resource not found\"}\nclasspath:com\/GoRest\/TestCasesForPostMEthod.feature:11","startTime":1738817355502,"endTime":1738817355502,"millis":0.196501,"status":"failed"},"step":{"line":11,"prefix":"Then","index":2,"text":"status 200"},"stepLog":"10:19:15.503 classpath:com\/GoRest\/TestCasesForPostMEthod.feature:11\nThen status 200\nstatus code was: 404, expected: 200, response time in milliseconds: 862, url: https:\/\/gorest.co.in\/public\/v2\/users\/700234567, response: \n{\"message\":\"Resource not found\"}\nclasspath:com\/GoRest\/TestCasesForPostMEthod.feature:11\n"}],"line":8,"description":"","durationMillis":873.1755,"failed":true,"error":"status code was: 404, expected: 200, response time in milliseconds: 862, url: https:\/\/gorest.co.in\/public\/v2\/users\/700234567, response: \n{\"message\":\"Resource not found\"}\nclasspath:com\/GoRest\/TestCasesForPostMEthod.feature:11","executorName":"main","name":"To verify get method with invalid user ID","startTime":1738817354628,"refId":"[2:8]","endTime":1738817355503,"exampleIndex":-1},{"sectionIndex":2,"stepResults":[{"result":{"nanos":1559100,"startTime":1738817355523,"endTime":1738817355525,"millis":1.5591,"status":"passed"},"step":{"line":15,"prefix":"Given","index":0,"text":"url 'https:\/\/reqres.in\/api\/users\/2'"}},{"result":{"nanos":93781800,"startTime":1738817355525,"endTime":1738817355619,"millis":93.7818,"status":"passed"},"step":{"line":16,"prefix":"When","index":1,"text":"method GET"},"stepLog":"10:19:15.527 request:\n1 > GET https:\/\/reqres.in\/api\/users\/2\n1 > Host: reqres.in\n1 > Connection: Keep-Alive\n1 > User-Agent: Apache-HttpClient\/4.5.14 (Java\/17.0.10)\n1 > Accept-Encoding: gzip,deflate\n\n\n10:19:15.614 response time in milliseconds: 81\n1 < 200\n1 < Date: Thu, 06 Feb 2025 04:49:16 GMT\n1 < Content-Type: application\/json; charset=utf-8\n1 < Transfer-Encoding: chunked\n1 < Connection: keep-alive\n1 < Report-To: {\"group\":\"heroku-nel\",\"max_age\":3600,\"endpoints\":[{\"url\":\"https:\/\/nel.heroku.com\/reports?ts=1738659018&sid=c4c9725f-1ab0-44d8-820f-430df2718e11&s=wWiKhZaTGmDONjvUCoqkgEIdJceHO8QdOCMucteYh3w%3D\"}]}\n1 < Reporting-Endpoints: heroku-nel=https:\/\/nel.heroku.com\/reports?ts=1738659018&sid=c4c9725f-1ab0-44d8-820f-430df2718e11&s=wWiKhZaTGmDONjvUCoqkgEIdJceHO8QdOCMucteYh3w%3D\n1 < Nel: {\"report_to\":\"heroku-nel\",\"max_age\":3600,\"success_fraction\":0.005,\"failure_fraction\":0.05,\"response_headers\":[\"Via\"]}\n1 < X-Powered-By: Express\n1 < Access-Control-Allow-Origin: *\n1 < Etag: W\/\"152-ApQgGHL6RKwaebFlrPCYPBO1xHg\"\n1 < Via: 1.1 vegur\n1 < Cache-Control: max-age=14400\n1 < CF-Cache-Status: HIT\n1 < Age: 7096\n1 < Vary: Accept-Encoding\n1 < Server: cloudflare\n1 < CF-RAY: 90d8833c0ce43199-BOM\n1 < server-timing: cfL4;desc=\"?proto=TCP&rtt=8131&min_rtt=7808&rtt_var=3575&sent=5&recv=7&lost=0&retrans=0&sent_bytes=3107&recv_bytes=758&delivery_rate=407425&cwnd=252&unsent_bytes=0&cid=86936f678328d15e&ts=35&x=0\"\n{\"data\":{\"id\":2,\"email\":\"janet.weaver@reqres.in\",\"first_name\":\"Janet\",\"last_name\":\"Weaver\",\"avatar\":\"https:\/\/reqres.in\/img\/faces\/2-image.jpg\"},\"support\":{\"url\":\"https:\/\/contentcaddy.io?utm_source=reqres&utm_medium=json&utm_campaign=referral\",\"text\":\"Tired of writing endless social media content? Let Content Caddy generate it for you.\"}}\n\n"},{"result":{"nanos":24619400,"startTime":1738817355619,"endTime":1738817355644,"millis":24.6194,"status":"passed"},"step":{"line":17,"prefix":"*","index":2,"text":"def statusCode = responseStatus"}},{"result":{"nanos":57429400,"startTime":1738817355643,"endTime":1738817355700,"millis":57.4294,"status":"passed"},"step":{"line":18,"prefix":"*","index":3,"text":"print statusCode"},"stepLog":"10:19:15.698 [print] 200 \n"},{"result":{"nanos":21295900,"startTime":1738817355701,"endTime":1738817355722,"millis":21.2959,"status":"passed"},"step":{"line":19,"prefix":"And","index":4,"text":"match statusCode == 200"}},{"result":{"nanos":9000,"startTime":1738817355722,"endTime":1738817355722,"millis":0.009,"status":"passed"},"step":{"line":20,"prefix":"Then","index":5,"text":"status 200"}},{"result":{"nanos":8263299,"startTime":1738817355722,"endTime":1738817355730,"millis":8.263299,"status":"passed"},"step":{"line":21,"prefix":"*","index":6,"text":"print response"},"stepLog":"10:19:15.730 [print] {\n  \"data\": {\n    \"id\": 2,\n    \"email\": \"janet.weaver@reqres.in\",\n    \"first_name\": \"Janet\",\n    \"last_name\": \"Weaver\",\n    \"avatar\": \"https:\/\/reqres.in\/img\/faces\/2-image.jpg\"\n  },\n  \"support\": {\n    \"url\": \"https:\/\/contentcaddy.io?utm_source=reqres&utm_medium=json&utm_campaign=referral\",\n    \"text\": \"Tired of writing endless social media content? Let Content Caddy generate it for you.\"\n  }\n}\n \n"},{"result":{"nanos":1200500,"startTime":1738817355730,"endTime":1738817355731,"millis":1.2005,"status":"passed"},"step":{"line":22,"prefix":"*","index":7,"text":"def email = response.data.email"}},{"result":{"nanos":1863501,"startTime":1738817355733,"endTime":1738817355735,"millis":1.863501,"status":"passed"},"step":{"line":23,"prefix":"*","index":8,"text":"print email"},"stepLog":"10:19:15.734 [print] janet.weaver@reqres.in \n"},{"result":{"nanos":8861099,"startTime":1738817355735,"endTime":1738817355744,"millis":8.861099,"status":"passed"},"step":{"line":24,"prefix":"And","index":9,"text":"match email == 'janet.weaver@reqres.in'"}},{"result":{"nanos":2203200,"startTime":1738817355743,"endTime":1738817355745,"millis":2.2032,"status":"passed"},"step":{"line":25,"prefix":"*","index":10,"text":"def firstName = response.data.first_name"}},{"result":{"nanos":1304201,"startTime":1738817355746,"endTime":1738817355747,"millis":1.304201,"status":"passed"},"step":{"line":26,"prefix":"*","index":11,"text":"print firstName"},"stepLog":"10:19:15.748 [print] Janet \n"},{"result":{"nanos":1629901,"startTime":1738817355748,"endTime":1738817355750,"millis":1.629901,"status":"passed"},"step":{"line":27,"prefix":"And","index":12,"text":"match firstName == 'Janet'"}}],"executorName":"main","line":14,"name":"To verify reqres Get method with valid data","description":"","durationMillis":224.020301,"startTime":1738817355523,"failed":false,"refId":"[3:14]","endTime":1738817355750,"exampleIndex":-1},{"sectionIndex":3,"stepResults":[{"result":{"nanos":565000,"startTime":1738817355761,"endTime":1738817355762,"millis":0.565,"status":"passed"},"step":{"line":30,"prefix":"Given","index":0,"text":"url 'https:\/\/reqres.in\/api\/users?page=2'"}},{"result":{"nanos":80870199,"startTime":1738817355762,"endTime":1738817355843,"millis":80.870199,"status":"passed"},"step":{"line":31,"prefix":"When","index":1,"text":"method get"},"stepLog":"10:19:15.763 request:\n1 > GET https:\/\/reqres.in\/api\/users?page=2\n1 > Host: reqres.in\n1 > Connection: Keep-Alive\n1 > User-Agent: Apache-HttpClient\/4.5.14 (Java\/17.0.10)\n1 > Accept-Encoding: gzip,deflate\n\n\n10:19:15.839 response time in milliseconds: 73\n1 < 200\n1 < Date: Thu, 06 Feb 2025 04:49:16 GMT\n1 < Content-Type: application\/json; charset=utf-8\n1 < Transfer-Encoding: chunked\n1 < Connection: keep-alive\n1 < Report-To: {\"group\":\"heroku-nel\",\"max_age\":3600,\"endpoints\":[{\"url\":\"https:\/\/nel.heroku.com\/reports?ts=1738163668&sid=c4c9725f-1ab0-44d8-820f-430df2718e11&s=SbFX97uKzhq1E78m6SKmni70vAIqP2CYrdmAjm%2FnQ4k%3D\"}]}\n1 < Reporting-Endpoints: heroku-nel=https:\/\/nel.heroku.com\/reports?ts=1738163668&sid=c4c9725f-1ab0-44d8-820f-430df2718e11&s=SbFX97uKzhq1E78m6SKmni70vAIqP2CYrdmAjm%2FnQ4k%3D\n1 < Nel: {\"report_to\":\"heroku-nel\",\"max_age\":3600,\"success_fraction\":0.005,\"failure_fraction\":0.05,\"response_headers\":[\"Via\"]}\n1 < X-Powered-By: Express\n1 < Access-Control-Allow-Origin: *\n1 < Etag: W\/\"440-ZjsmMKR8P3usr2uJZbOCGCxC3Uw\"\n1 < Via: 1.1 vegur\n1 < Cache-Control: max-age=14400\n1 < CF-Cache-Status: HIT\n1 < Age: 5141\n1 < Vary: Accept-Encoding\n1 < Server: cloudflare\n1 < CF-RAY: 90d8833d8e7747cb-BOM\n1 < server-timing: cfL4;desc=\"?proto=TCP&rtt=15238&min_rtt=10833&rtt_var=7209&sent=3&recv=6&lost=0&retrans=0&sent_bytes=219&recv_bytes=1018&delivery_rate=130342&cwnd=250&unsent_bytes=0&cid=adf9ef20d26bbeb4&ts=24&x=0\"\n{\"page\":2,\"per_page\":6,\"total\":12,\"total_pages\":2,\"data\":[{\"id\":7,\"email\":\"michael.lawson@reqres.in\",\"first_name\":\"Michael\",\"last_name\":\"Lawson\",\"avatar\":\"https:\/\/reqres.in\/img\/faces\/7-image.jpg\"},{\"id\":8,\"email\":\"lindsay.ferguson@reqres.in\",\"first_name\":\"Lindsay\",\"last_name\":\"Ferguson\",\"avatar\":\"https:\/\/reqres.in\/img\/faces\/8-image.jpg\"},{\"id\":9,\"email\":\"tobias.funke@reqres.in\",\"first_name\":\"Tobias\",\"last_name\":\"Funke\",\"avatar\":\"https:\/\/reqres.in\/img\/faces\/9-image.jpg\"},{\"id\":10,\"email\":\"byron.fields@reqres.in\",\"first_name\":\"Byron\",\"last_name\":\"Fields\",\"avatar\":\"https:\/\/reqres.in\/img\/faces\/10-image.jpg\"},{\"id\":11,\"email\":\"george.edwards@reqres.in\",\"first_name\":\"George\",\"last_name\":\"Edwards\",\"avatar\":\"https:\/\/reqres.in\/img\/faces\/11-image.jpg\"},{\"id\":12,\"email\":\"rachel.howell@reqres.in\",\"first_name\":\"Rachel\",\"last_name\":\"Howell\",\"avatar\":\"https:\/\/reqres.in\/img\/faces\/12-image.jpg\"}],\"support\":{\"url\":\"https:\/\/contentcaddy.io?utm_source=reqres&utm_medium=json&utm_campaign=referral\",\"text\":\"Tired of writing endless social media content? Let Content Caddy generate it for you.\"}}\n\n"},{"result":{"nanos":36299,"startTime":1738817355843,"endTime":1738817355843,"millis":0.036299,"status":"passed"},"step":{"line":32,"prefix":"Then","index":2,"text":"status 200"}},{"result":{"nanos":4268001,"startTime":1738817355843,"endTime":1738817355847,"millis":4.268001,"status":"passed"},"step":{"line":33,"prefix":"*","index":3,"text":"print response"},"stepLog":"10:19:15.846 [print] {\n  \"page\": 2,\n  \"per_page\": 6,\n  \"total\": 12,\n  \"total_pages\": 2,\n  \"data\": [\n    {\n      \"id\": 7,\n      \"email\": \"michael.lawson@reqres.in\",\n      \"first_name\": \"Michael\",\n      \"last_name\": \"Lawson\",\n      \"avatar\": \"https:\/\/reqres.in\/img\/faces\/7-image.jpg\"\n    },\n    {\n      \"id\": 8,\n      \"email\": \"lindsay.ferguson@reqres.in\",\n      \"first_name\": \"Lindsay\",\n      \"last_name\": \"Ferguson\",\n      \"avatar\": \"https:\/\/reqres.in\/img\/faces\/8-image.jpg\"\n    },\n    {\n      \"id\": 9,\n      \"email\": \"tobias.funke@reqres.in\",\n      \"first_name\": \"Tobias\",\n      \"last_name\": \"Funke\",\n      \"avatar\": \"https:\/\/reqres.in\/img\/faces\/9-image.jpg\"\n    },\n    {\n      \"id\": 10,\n      \"email\": \"byron.fields@reqres.in\",\n      \"first_name\": \"Byron\",\n      \"last_name\": \"Fields\",\n      \"avatar\": \"https:\/\/reqres.in\/img\/faces\/10-image.jpg\"\n    },\n    {\n      \"id\": 11,\n      \"email\": \"george.edwards@reqres.in\",\n      \"first_name\": \"George\",\n      \"last_name\": \"Edwards\",\n      \"avatar\": \"https:\/\/reqres.in\/img\/faces\/11-image.jpg\"\n    },\n    {\n      \"id\": 12,\n      \"email\": \"rachel.howell@reqres.in\",\n      \"first_name\": \"Rachel\",\n      \"last_name\": \"Howell\",\n      \"avatar\": \"https:\/\/reqres.in\/img\/faces\/12-image.jpg\"\n    }\n  ],\n  \"support\": {\n    \"url\": \"https:\/\/contentcaddy.io?utm_source=reqres&utm_medium=json&utm_campaign=referral\",\n    \"text\": \"Tired of writing endless social media content? Let Content Caddy generate it for you.\"\n  }\n}\n \n"},{"result":{"nanos":2889500,"startTime":1738817355848,"endTime":1738817355851,"millis":2.8895,"status":"passed"},"step":{"line":34,"prefix":"*","index":4,"text":"def ActuallistOfUsers = response"}},{"result":{"nanos":4781301,"startTime":1738817355851,"endTime":1738817355856,"millis":4.781301,"status":"passed"},"step":{"line":35,"prefix":"*","index":5,"text":"print ActuallistOfUsers"},"stepLog":"10:19:15.854 [print] {\n  \"page\": 2,\n  \"per_page\": 6,\n  \"total\": 12,\n  \"total_pages\": 2,\n  \"data\": [\n    {\n      \"id\": 7,\n      \"email\": \"michael.lawson@reqres.in\",\n      \"first_name\": \"Michael\",\n      \"last_name\": \"Lawson\",\n      \"avatar\": \"https:\/\/reqres.in\/img\/faces\/7-image.jpg\"\n    },\n    {\n      \"id\": 8,\n      \"email\": \"lindsay.ferguson@reqres.in\",\n      \"first_name\": \"Lindsay\",\n      \"last_name\": \"Ferguson\",\n      \"avatar\": \"https:\/\/reqres.in\/img\/faces\/8-image.jpg\"\n    },\n    {\n      \"id\": 9,\n      \"email\": \"tobias.funke@reqres.in\",\n      \"first_name\": \"Tobias\",\n      \"last_name\": \"Funke\",\n      \"avatar\": \"https:\/\/reqres.in\/img\/faces\/9-image.jpg\"\n    },\n    {\n      \"id\": 10,\n      \"email\": \"byron.fields@reqres.in\",\n      \"first_name\": \"Byron\",\n      \"last_name\": \"Fields\",\n      \"avatar\": \"https:\/\/reqres.in\/img\/faces\/10-image.jpg\"\n    },\n    {\n      \"id\": 11,\n      \"email\": \"george.edwards@reqres.in\",\n      \"first_name\": \"George\",\n      \"last_name\": \"Edwards\",\n      \"avatar\": \"https:\/\/reqres.in\/img\/faces\/11-image.jpg\"\n    },\n    {\n      \"id\": 12,\n      \"email\": \"rachel.howell@reqres.in\",\n      \"first_name\": \"Rachel\",\n      \"last_name\": \"Howell\",\n      \"avatar\": \"https:\/\/reqres.in\/img\/faces\/12-image.jpg\"\n    }\n  ],\n  \"support\": {\n    \"url\": \"https:\/\/contentcaddy.io?utm_source=reqres&utm_medium=json&utm_campaign=referral\",\n    \"text\": \"Tired of writing endless social media content? Let Content Caddy generate it for you.\"\n  }\n}\n \n"},{"result":{"nanos":1702800,"startTime":1738817355855,"endTime":1738817355857,"millis":1.7028,"status":"passed"},"step":{"line":36,"prefix":"*","index":6,"text":"def actualPageNumber = response.page"}},{"result":{"nanos":4350499,"startTime":1738817355857,"endTime":1738817355861,"millis":4.350499,"status":"passed"},"step":{"line":37,"prefix":"*","index":7,"text":"def actualID = response.data[0].id"}},{"result":{"nanos":1034999,"startTime":1738817355862,"endTime":1738817355863,"millis":1.034999,"status":"passed"},"step":{"line":38,"prefix":"*","index":8,"text":"def actual2ID = response.data[1].id"}},{"result":{"nanos":1109800,"startTime":1738817355863,"endTime":1738817355864,"millis":1.1098,"status":"passed"},"step":{"line":40,"prefix":"*","index":9,"text":"print actualPageNumber"},"stepLog":"10:19:15.864 [print] 2 \n"},{"result":{"nanos":1418700,"startTime":1738817355864,"endTime":1738817355865,"millis":1.4187,"status":"passed"},"step":{"line":41,"prefix":"*","index":10,"text":"print actualID"},"stepLog":"10:19:15.865 [print] 7 \n"},{"result":{"nanos":2031800,"startTime":1738817355866,"endTime":1738817355868,"millis":2.0318,"status":"passed"},"step":{"line":42,"prefix":"*","index":11,"text":"print actual2ID"},"stepLog":"10:19:15.867 [print] 8 \n"},{"result":{"nanos":2802801,"startTime":1738817355868,"endTime":1738817355871,"millis":2.802801,"status":"passed"},"step":{"line":43,"prefix":"And","index":12,"text":"match actualPageNumber == 2"}},{"result":{"nanos":856600,"startTime":1738817355871,"endTime":1738817355872,"millis":0.8566,"status":"passed"},"step":{"line":44,"prefix":"And","index":13,"text":"match actualID == 7"}},{"result":{"nanos":633300,"startTime":1738817355872,"endTime":1738817355873,"millis":0.6333,"status":"passed"},"step":{"line":45,"prefix":"And","index":14,"text":"match actual2ID == 8"}},{"result":{"nanos":334100,"startTime":1738817355873,"endTime":1738817355873,"millis":0.3341,"status":"passed"},"step":{"line":47,"prefix":"*","index":15,"text":"def HeaderData = responseHeaders"}},{"result":{"nanos":2603201,"startTime":1738817355873,"endTime":1738817355876,"millis":2.603201,"status":"passed"},"step":{"line":48,"prefix":"*","index":16,"text":"print HeaderData"},"stepLog":"10:19:15.875 [print] {\n  \"Date\": [\n    \"Thu, 06 Feb 2025 04:49:16 GMT\"\n  ],\n  \"Content-Type\": [\n    \"application\/json; charset=utf-8\"\n  ],\n  \"Transfer-Encoding\": [\n    \"chunked\"\n  ],\n  \"Connection\": [\n    \"keep-alive\"\n  ],\n  \"Report-To\": [\n    \"{\\\"group\\\":\\\"heroku-nel\\\",\\\"max_age\\\":3600,\\\"endpoints\\\":[{\\\"url\\\":\\\"https:\/\/nel.heroku.com\/reports?ts=1738163668&sid=c4c9725f-1ab0-44d8-820f-430df2718e11&s=SbFX97uKzhq1E78m6SKmni70vAIqP2CYrdmAjm%2FnQ4k%3D\\\"}]}\"\n  ],\n  \"Reporting-Endpoints\": [\n    \"heroku-nel=https:\/\/nel.heroku.com\/reports?ts=1738163668&sid=c4c9725f-1ab0-44d8-820f-430df2718e11&s=SbFX97uKzhq1E78m6SKmni70vAIqP2CYrdmAjm%2FnQ4k%3D\"\n  ],\n  \"Nel\": [\n    \"{\\\"report_to\\\":\\\"heroku-nel\\\",\\\"max_age\\\":3600,\\\"success_fraction\\\":0.005,\\\"failure_fraction\\\":0.05,\\\"response_headers\\\":[\\\"Via\\\"]}\"\n  ],\n  \"X-Powered-By\": [\n    \"Express\"\n  ],\n  \"Access-Control-Allow-Origin\": [\n    \"*\"\n  ],\n  \"Etag\": [\n    \"W\/\\\"440-ZjsmMKR8P3usr2uJZbOCGCxC3Uw\\\"\"\n  ],\n  \"Via\": [\n    \"1.1 vegur\"\n  ],\n  \"Cache-Control\": [\n    \"max-age=14400\"\n  ],\n  \"CF-Cache-Status\": [\n    \"HIT\"\n  ],\n  \"Age\": [\n    \"5141\"\n  ],\n  \"Vary\": [\n    \"Accept-Encoding\"\n  ],\n  \"Server\": [\n    \"cloudflare\"\n  ],\n  \"CF-RAY\": [\n    \"90d8833d8e7747cb-BOM\"\n  ],\n  \"server-timing\": [\n    \"cfL4;desc=\\\"?proto=TCP&rtt=15238&min_rtt=10833&rtt_var=7209&sent=3&recv=6&lost=0&retrans=0&sent_bytes=219&recv_bytes=1018&delivery_rate=130342&cwnd=250&unsent_bytes=0&cid=adf9ef20d26bbeb4&ts=24&x=0\\\"\"\n  ],\n  \"Set-Cookie\": [\n  ]\n}\n \n"},{"result":{"nanos":5852999,"startTime":1738817355876,"endTime":1738817355882,"millis":5.852999,"status":"passed"},"step":{"line":49,"prefix":"*","index":17,"text":"def headerContentType = responseHeaders[\"Content-Type\"]"}},{"result":{"nanos":2420500,"startTime":1738817355881,"endTime":1738817355883,"millis":2.4205,"status":"passed"},"step":{"line":50,"prefix":"*","index":18,"text":"print headerContentType"},"stepLog":"10:19:15.883 [print] [\n  \"application\/json; charset=utf-8\"\n]\n \n"},{"result":{"nanos":19741799,"startTime":1738817355884,"endTime":1738817355904,"millis":19.741799,"status":"passed"},"step":{"line":51,"prefix":"And","index":19,"text":"match headerContentType == [\"application\/json; charset=utf-8\"]"}},{"result":{"nanos":1456200,"startTime":1738817355904,"endTime":1738817355905,"millis":1.4562,"status":"passed"},"step":{"line":52,"prefix":"*","index":20,"text":"def ActualEmail = response.data[1].email"}},{"result":{"nanos":1590700,"startTime":1738817355905,"endTime":1738817355907,"millis":1.5907,"status":"passed"},"step":{"line":53,"prefix":"*","index":21,"text":"print ActualEmail"},"stepLog":"10:19:15.907 [print] lindsay.ferguson@reqres.in \n"},{"result":{"nanos":1409300,"startTime":1738817355907,"endTime":1738817355908,"millis":1.4093,"status":"passed"},"step":{"line":54,"prefix":"And","index":22,"text":"match ActualEmail == 'lindsay.ferguson@reqres.in'"}}],"executorName":"main","line":29,"name":"To verify get method with valid page number to fetch list of users","description":"","durationMillis":144.760398,"startTime":1738817355761,"failed":false,"refId":"[4:29]","endTime":1738817355909,"exampleIndex":-1}],"callDepth":0,"name":"Test cases for GoRest Get Method","description":"","resultDate":"2025-02-06 10:19:15 am","durationMillis":2829.3699,"passedCount":2}